397 1574 880 130 441 1273 429 677 463 483 627 359 882 448 491 509 476 503 517 516 563 544 527 531 580 601 1400 804 806 825 1744 900 955 967 868 0 947 939 966 982 915 1815 879 925 933 897 925 1850 957 910 0 1826 828 0 0 821 846 0 865 1646 1579 1403 1327 641 0 1200 571 1053 0 518 548 1544 0 1079 1059 1044 1094 518 1109 582 1706 1120 1794 1250 652 1344 693 741 709 0 752 1623 787 869 959 1025 1054 1126 1255 1348 1572 0 1708 1970 0 2148 0 2381 2553 0 0 2763 0 3216 0 3442 0 0 0 3934 0 0 0 4174 0 0 4653 0 0 0 0 0 0 5355 0 0 0 0 0 0 0 5740 0 0 0 0 0 6121 0 0 0 0 6387 0 0 0 0 0 6813 0 0 0 0 0 6810 0 0 0 0 0 0 6858 0 0 0 0 0 6866 0 0 0 7052 0 0 0 0 0 0 7876 0 0 0 0 0 0 0 8491 0 0 0 0 0 0 8924 0 0 0 0 0 7775 0 0 0 0 6621 0 0 0 0 0 0 5645 0 0 0 5005 0 0 0 5064 0 0 0 0 5126 0 0 0 5642 0 0 0 4591 0 0 0 4878 0 0 4554 0 0 0 3793 0 1605 
662 1509 955 441 447 1110 677 946 986 408 922 1000 979 1033 563 544 1058 580 1296 705 804 806 825 867 877 0 1855 967 868 947 939 966 982 915 906 909 879 925 1830 925 918 932 957 910 950 876 828 1667 865 808 838 1579 718 685 0 657 1311 599 601 1624 1066 1042 1049 1075 516 1044 1094 1049 578 582 1129 1118 579 1199 1211 634 1303 693 693 741 1461 766 1644 869 959 1025 1054 1126 0 1255 1348 1572 0 1708 0 1970 0 2148 0 2381 0 2553 0 0 2763 0 0 3216 0 0 3442 0 0 3934 0 0 0 4174 0 0 0 4653 0 0 0 0 5355 0 0 0 0 0 5740 0 0 0 0 0 6121 0 0 0 0 0 0 6387 0 0 0 0 0 6813 0 0 0 0 0 6810 0 0 0 0 0 0 6858 0 0 0 0 0 6866 0 0 0 0 0 0 7052 0 0 0 0 0 0 7876 0 0 0 0 0 0 0 8491 0 0 0 0 0 0 0 8924 0 0 0 0 0 0 7775 0 0 0 0 0 0 6621 0 0 0 5645 0 0 0 0 5005 0 0 0 5064 0 0 0 0 5126 0 0 0 0 5642 0 0 0 0 4591 0 0 0 4878 0 0 0 4554 0 0 0 3793 1605 
397 1574 200 181 161 1501 132 160 145 244 0 122 154 629 407 0 257 797 0 313 359 0 882 448 0 491 2005 516 563 544 1638 601 1400 804 1631 0 867 0 1777 0 1922 868 947 0 939 1948 0 1821 1788 0 925 1830 0 0 925 918 0 932 0 1867 1826 828 821 0 846 0 0 0 865 0 0 808 0 0 838 0 1579 718 1342 670 1240 2225 1574 1583 532 1059 2138 0 518 0 531 1713 576 577 541 1778 1211 1286 2037 1450 752 766 1644 1828 0 2079 1126 1255 1348 3280 0 0 1970 2148 2381 2553 0 2763 0 0 3216 0 0 3442 0 0 3934 0 0 0 0 0 4174 0 0 0 0 0 0 4653 0 0 0 0 0 5355 0 0 0 5740 0 0 0 0 6121 0 0 0 0 0 0 6387 0 0 0 0 0 6813 0 0 0 0 0 0 6810 0 0 0 6858 0 0 0 6866 0 0 0 0 0 7052 0 0 0 0 0 7876 0 0 0 0 0 8491 0 0 0 0 0 8924 0 0 0 0 7775 0 0 0 6621 0 0 0 0 0 0 5645 0 0 5005 0 0 0 5064 0 0 0 0 0 5126 0 0 5642 0 0 0 4591 0 0 0 4878 0 4554 0 0 0 0 3793 0 1605 
0 1214 0 199 0 1100 0 0 0 0 0 0 0 468 0 0 0 876 0 0 0 0 960 0 0 0 1930 627 0 359 1821 985 1536 0 1107 0 0 0 2239 0 1400 804 806 0 0 1692 0 2732 1835 0 0 2852 0 0 0 0 982 915 0 1815 879 1858 897 0 0 925 0 0 0 0 0 0 0 0 0 918 1889 0 1860 0 876 2495 2511 1579 0 2060 1910 0 0 0 601 2142 548 0 0 2091 1591 524 1614 2209 0 553 2273 1794 0 2553 693 2143 2375 2615 0 1025 2180 2603 1572 1708 1970 0 2148 2381 0 0 2553 2763 3216 0 0 0 0 0 0 0 3442 0 0 0 0 0 0 3934 0 0 0 0 0 4174 0 0 0 4653 0 0 0 5355 0 0 5740 0 0 0 0 0 0 0 6121 0 0 0 0 6387 0 0 0 0 0 0 6813 0 0 6810 0 0 0 6858 0 0 0 0 6866 0 0 0 7052 0 0 0 0 7876 0 0 0 0 8491 0 0 0 0 0 8924 0 0 0 0 7775 0 0 0 0 6621 0 0 0 0 0 5645 0 0 0 0 5005 0 0 0 5064 0 0 5126 0 0 0 0 5642 0 4591 0 0 0 4878 0 4554 0 0 0 3793 0 1605 
0 0 0 0 0 834 0 0 0 0 0 0 0 0 0 0 0 2292 0 0 0 0 296 0 0 0 2178 0 0 0 2133 1821 509 0 2012 0 0 0 2165 0 580 601 0 0 0 2204 0 1631 2644 0 0 1922 0 0 0 0 0 2754 0 1948 1821 1788 0 0 0 0 0 0 0 0 0 0 0 0 0 0 2755 0 1843 0 0 2799 1826 2495 0 1673 2417 0 0 0 0 2730 0 0 0 1841 2142 0 2092 2138 0 0 2138 2209 0 2247 1177 2446 1996 2143 0 2375 2615 2079 2381 1348 1572 0 3678 2148 2381 0 0 2553 2763 0 0 0 3216 0 0 0 0 3442 0 0 0 0 0 3934 0 0 0 0 0 4174 0 0 0 0 0 0 4653 0 5355 0 0 0 0 0 0 0 0 5740 0 0 0 0 6121 0 0 0 0 6387 0 0 0 6813 0 0 0 6810 0 0 6858 0 0 0 0 0 6866 0 0 0 7052 0 0 7876 0 0 0 0 8491 0 0 0 0 0 0 0 8924 0 0 0 7775 0 0 0 6621 0 0 0 0 5645 0 0 0 5005 0 0 0 0 0 5064 0 0 0 5126 0 0 0 5642 0 4591 0 0 4878 0 4554 0 0 0 3793 0 0 1605 
516 1836 328 171 275 599 132 594 244 122 307 476 407 740 627 359 0 408 474 448 0 491 1488 517 0 1079 1602 1181 695 705 1610 825 867 0 877 900 0 0 1922 868 947 939 966 0 982 915 906 909 1804 933 0 1822 918 0 932 957 0 910 0 2654 821 1711 808 0 838 0 771 0 808 0 0 2060 0 670 641 1200 2142 548 1042 0 1049 1591 1593 1063 0 1109 1135 0 576 0 577 1718 1196 616 634 1996 693 1450 752 1623 787 869 1984 2180 0 1255 1348 1572 1708 1970 0 0 2148 2381 0 2553 0 2763 0 3216 0 0 3442 0 0 3934 0 0 0 4174 0 0 0 0 0 0 0 0 0 4653 0 0 0 0 5355 0 0 0 5740 0 0 0 0 6121 0 0 0 0 0 0 0 6387 0 0 0 0 0 0 6813 0 0 0 0 0 0 6810 0 0 0 6858 0 0 0 6866 0 0 0 0 0 7052 0 0 0 0 0 7876 0 0 0 0 0 8491 0 0 0 0 0 0 8924 0 0 0 0 7775 0 0 0 0 6621 0 0 0 0 5645 0 0 0 5005 0 0 0 0 5064 0 0 5126 0 0 0 0 5642 0 0 4591 0 0 0 4878 0 0 0 4554 0 0 3793 1605 
397 1197 577 181 328 1334 292 665 469 160 664 483 627 359 408 474 448 1000 476 503 517 0 1079 544 527 0 1712 695 0 705 1610 825 1744 0 1855 0 967 0 1815 939 966 982 915 906 0 1788 925 933 1822 0 918 1889 910 0 0 0 950 876 0 2495 865 1646 771 808 0 718 685 657 0 670 641 599 601 571 529 524 1574 534 1581 0 1583 1614 1627 1711 577 1120 1199 595 616 634 652 1344 693 741 709 1518 857 787 1828 2079 0 1126 1255 1348 1572 1708 0 1970 2148 0 2381 0 2553 0 2763 0 3216 0 0 3442 0 0 3934 0 0 4174 0 0 0 0 0 0 4653 0 0 0 0 0 5355 0 0 0 0 0 0 5740 0 0 0 0 0 6121 0 0 0 6387 0 0 0 0 0 0 0 6813 0 0 0 0 0 6810 0 0 0 0 6858 0 0 0 0 6866 0 0 0 0 7052 0 0 0 0 0 0 7876 0 0 0 0 0 8491 0 0 0 0 0 0 8924 0 0 0 0 0 7775 0 0 0 0 6621 0 0 0 0 0 5645 0 0 5005 0 0 0 0 0 5064 0 0 0 0 5126 0 0 5642 0 0 0 4591 0 0 0 4878 0 0 4554 0 0 0 3793 0 1605 
1 396 119 0 0 1078 0 0 0 0 0 0 0 200 0 0 0 1773 0 0 0 0 579 0 0 0 2118 227 0 256 1868 1448 979 0 2140 0 0 0 2239 0 695 705 0 0 0 2435 0 2644 1922 0 0 1815 0 0 939 0 0 966 0 2803 909 2737 0 0 0 0 0 0 0 0 0 0 0 0 0 897 1843 0 1889 0 910 2654 1667 2511 0 2297 2012 0 0 0 0 2412 529 0 0 2098 1036 547 2115 2132 0 0 2244 2273 0 2410 1286 2037 2202 2410 0 1828 2079 2381 1348 3280 0 0 1970 2148 2381 0 2553 2763 0 0 0 0 3216 0 0 0 3442 0 0 0 0 3934 0 0 0 0 0 0 0 4174 0 0 0 0 0 4653 0 5355 0 0 0 0 0 0 0 5740 0 0 0 0 6121 0 0 0 0 0 6387 0 0 0 6813 0 0 6810 0 0 0 6858 0 0 0 0 0 6866 0 0 0 0 7052 0 0 7876 0 0 0 0 8491 0 0 0 0 0 8924 0 0 0 0 7775 0 0 0 0 6621 0 0 0 0 5645 0 0 0 5005 0 0 0 0 0 5064 0 0 0 5126 0 0 0 5642 0 4591 0 0 0 4878 0 4554 0 0 0 3793 0 1605 
50 1744 177 200 0 342 0 338 0 0 130 302 139 724 0 160 0 389 122 0 0 0 1447 227 0 0 2124 939 0 985 1536 1107 1058 0 580 0 0 0 2001 0 1610 825 867 0 0 1777 0 2790 1886 0 0 1948 0 0 915 0 906 909 0 1804 1830 1843 0 0 0 932 957 0 0 0 0 910 0 950 0 876 2495 0 865 0 808 2417 1403 1968 0 1200 1624 0 0 0 518 2092 1079 0 0 2103 1094 518 1109 2288 0 1120 1794 2553 0 2127 709 1518 2513 1984 0 1054 2381 1348 1572 3678 0 0 2148 0 2381 0 2553 2763 0 3216 0 0 0 0 0 0 3442 0 0 0 0 0 0 3934 0 0 0 0 4174 0 0 4653 0 0 0 0 5355 0 0 5740 0 0 0 0 0 0 0 0 6121 0 0 0 0 0 0 0 6387 0 0 0 6813 0 0 0 6810 0 0 6858 0 0 0 0 0 6866 0 0 0 7052 0 0 0 7876 0 0 0 0 0 8491 0 0 0 0 0 0 8924 0 0 0 0 7775 0 0 0 0 0 0 6621 0 0 0 5645 0 0 5005 0 0 0 0 5064 0 0 5126 0 0 0 5642 0 0 0 4591 0 4878 0 0 0 4554 0 3793 0 1605 
224 1570 0 177 200 810 145 157 139 0 145 290 157 544 137 122 154 629 201 0 206 0 1054 313 0 359 1821 985 0 1020 1623 1058 1181 0 1400 0 0 0 2435 0 867 877 900 0 0 2790 0 1886 1948 0 0 1821 909 0 0 879 0 925 0 2755 918 1889 910 0 0 0 950 0 0 0 0 876 0 828 0 821 2519 0 838 771 808 2060 1910 1701 0 1590 1544 0 0 547 0 2115 520 549 0 2172 1135 576 1697 1794 616 634 1996 2143 0 2375 787 1828 2079 1126 1255 1348 1572 1708 1970 2148 0 2381 0 2553 0 0 2763 3216 0 0 3442 0 0 0 0 0 3934 0 0 0 0 0 0 0 4174 0 0 0 0 4653 0 0 0 5355 0 0 0 5740 0 0 0 0 0 0 0 6121 0 0 0 0 6387 0 0 0 0 0 0 0 6813 0 0 0 6810 0 0 6858 0 0 0 0 6866 0 0 0 0 7052 0 0 0 0 7876 0 0 0 0 0 8491 0 0 0 0 0 8924 0 0 0 0 7775 0 0 0 0 6621 0 0 0 0 0 5645 0 0 5005 0 0 0 0 0 5064 0 0 5126 0 0 0 0 5642 0 4591 0 0 0 4878 0 4554 0 0 0 3793 0 1605 
